{
  "/js/app.js": "/js/app.js",
  "/css/app.css": "/css/app.css",
  "/css/style.css": "/css/style.css",
  "/css/material-dashboard.css": "/css/material-dashboard.css",
  "/js/admin.js": "/js/admin.js",
  "/css/admin.css": "/css/admin.css",
  "/js/js.landing.js": "/js/js.landing.js",
  "/js/landing.js": "/js/landing.js",
  "/css/landing.css": "/css/landing.css"
}